module ecs_trigger

go 1.18

require (
	github.com/aws/aws-sdk-go v1.48.12
	github.com/shirou/gopsutil v3.21.11+incompatible
)

require (
	github.com/go-ole/go-ole v1.2.6 // indirect
	github.com/jmespath/go-jmespath v0.4.0 // indirect
	github.com/stretchr/testify v1.8.4 // indirect
	github.com/tklauser/go-sysconf v0.3.13 // indirect
	github.com/tklauser/numcpus v0.7.0 // indirect
	github.com/yusufpapurcu/wmi v1.2.3 // indirect
	golang.org/x/sys v0.15.0 // indirect
)
